…
ggsave("plots/rainclound.png", width = 30, height = 25, units = "cm")



```
</details>

<img src="https://github.com/loukesio/plots/blob/main/plots/rainclound.png" width="600" />


### 4. Chord Diagram


```
# A tibble: 147 × 3
# Groups:   from [13]
   from           to      value
   <chr>          <chr>   <dbl>
 1 Germany        France    306
 2 Italy          France    268
 3 Germany        Belgium   235
 4 Belgium        France    200
 5 France         Belgium   190
 6 Italy          Spain     170
 7 Spain          France    152
 8 United Kingdom France    131
 9 Poland         France    125
10 Spain          Italy     123
# … with 137 more rows
```
…
